Rceruiting Rankings and Wins - Sports Data Analysis
…
all_rankings <- read_csv("https://dwillis.github.io/sports-data-files/all_rankings.csv")

## Rows: 400 Columns: 3
## ── Column specification ────────────────────────────────────────────────────────
## Delimiter: ","
## chr (1): team
## dbl (2): rating, year
## 
## ℹ Use `spec()` to retrieve the full column specification for this data.
## ℹ Specify the column types or set `show_col_types = FALSE` to quiet this message.

all_data <- all_rankings %>% inner_join(all_teams, by=c("team","year"))
all_data

## # A tibble: 350 × 22
##    team     rating  year confe…¹ divis…² expec…³ total…⁴ total…⁵ total…⁶ total…⁷
##    <chr>     <dbl> <dbl> <chr>   <chr>     <dbl>   <dbl>   <dbl>   <dbl>   <dbl>
##  1 Alabama    328.  2021 SEC     West       11        15      13       2       0
##  2 Ohio St…   322.  2021 Big Ten East        9.9      13      11       2       0
##  3 LSU        295.  2021 SEC     West        7.2      13       6       7       0
##  4 Georgia    294.  2021 SEC     East       13.9      15      14       1       0
##  5 Clemson    291.  2021 ACC     Atlant…     8.7      13      10       3       0
##  6 Oregon     287.  2021 Pac-12  North       9.8      14      10       4       0
##  7 USC        281.  2021 Pac-12  South       3.5      12       4       8       0
##  8 Texas A…   279.  2021 SEC     West        9        12       8       4       0
##  9 Notre D…   269.  2021 FBS In… <NA>        9.8      13      11       2       0
## 10 Oklahoma   268.  2021 Big 12  <NA>        8.4      13      11       2       0
## # … with 340 more rows, 12 more variables: conference_games <dbl>,
## #   conference_wins <dbl>, conference_losses <dbl>, conference_ties <dbl>,
## #   home_games <dbl>, home_wins <dbl>, home_losses <dbl>, home_ties <dbl>,
## #   away_games <dbl>, away_wins <dbl>, away_losses <dbl>, away_ties <dbl>, and
## #   abbreviated variable names ¹​conference, ²​division, ³​expected_wins,
## #   ⁴​total_games, ⁵​total_wins, ⁶​total_losses, ⁷​total_ties
…
