First-Play-Interceptions - Sports Data Analysis
…
##Which teams have done it more than once?
According to this first set, Ball State, Indiana, Purdue, Tulsa and UAB have doen this twice.
According to the second it was Ball State, Indiana, Purdue, Tulsa and UAB as well. The two find the same findings

first_play_team <- first_plays_game %>% group_by(pos_team, play_type) %>% summarize(count=n()) %>% arrange(desc(count))

## `summarise()` has grouped output by 'pos_team'. You can override using the
## `.groups` argument.

first_play_team %>% filter(play_type == "Interception Return" | play_type == "Interception Return Touchdown")

## # A tibble: 47 × 3
## # Groups:   pos_team [45]
##    pos_team        play_type           count
##    <chr>           <chr>               <int>
##  1 Ball State      Interception Return     2
##  2 Indiana         Interception Return     2
##  3 Purdue          Interception Return     2
##  4 Tulsa           Interception Return     2
##  5 UAB             Interception Return     2
##  6 Alabama         Interception Return     1
##  7 Bethune-Cookman Interception Return     1
##  8 Boston College  Interception Return     1
##  9 Bowling Green   Interception Return     1
## 10 BYU             Interception Return     1
## # … with 37 more rows

first_play_team2 <- first_plays_game2 %>% group_by(pos_team, play_type) %>% summarize(count=n()) %>% arrange(desc(count))

## `summarise()` has grouped output by 'pos_team'. You can override using the
## `.groups` argument.

first_play_team2 %>% filter(play_type == "Interception Return" | play_type == "Interception Return Touchdown")

## # A tibble: 43 × 3
## # Groups:   pos_team [40]
##    pos_team       play_type                     count
##    <chr>          <chr>                         <int>
##  1 Ball State     Interception Return               2
##  2 Indiana        Interception Return               2
##  3 Purdue         Interception Return               2
##  4 Tulsa          Interception Return               2
##  5 UAB            Interception Return               2
##  6 Alabama        Interception Return               1
##  7 Boston College Interception Return               1
##  8 Bowling Green  Interception Return               1
##  9 BYU            Interception Return               1
## 10 BYU            Interception Return Touchdown     1
## # … with 33 more rows
…
